(module Diodes_THT:D_DO-15_P12.70mm_Horizontal (layer F.Cu) (tedit 5B03EF9D)
  (descr "D, DO-15 series, Axial, Horizontal, pin pitch=12.7mm, , length*diameter=7.6*3.6mm^2, , http://www.diodes.com/_files/packages/DO-15.pdf")
  (tags "D DO-15 series Axial Horizontal pin pitch 12.7mm  length 7.6mm diameter 3.6mm")
  (fp_text reference D1 (at 6.35 0.075) (layer F.SilkS)
    (effects (font (size 1 1) (thickness 0.15)))
  )
  (fp_text value 1N5353B (at 6.35 2.86) (layer F.SilkS)
    (effects (font (size 1 1) (thickness 0.15)))
  )
  (fp_line (start 14.15 -2.15) (end -1.45 -2.15) (layer F.CrtYd) (width 0.05))
  (fp_line (start 14.15 2.15) (end 14.15 -2.15) (layer F.CrtYd) (width 0.05))
  (fp_line (start -1.45 2.15) (end 14.15 2.15) (layer F.CrtYd) (width 0.05))
  (fp_line (start -1.45 -2.15) (end -1.45 2.15) (layer F.CrtYd) (width 0.05))
  (fp_line (start 3.69 -1.86) (end 3.69 1.86) (layer F.SilkS) (width 0.12))
  (fp_line (start 11.32 0) (end 10.21 0) (layer F.SilkS) (width 0.12))
  (fp_line (start 1.38 0) (end 2.49 0) (layer F.SilkS) (width 0.12))
  (fp_line (start 10.21 -1.86) (end 2.49 -1.86) (layer F.SilkS) (width 0.12))
  (fp_line (start 10.21 1.86) (end 10.21 -1.86) (layer F.SilkS) (width 0.12))
  (fp_line (start 2.49 1.86) (end 10.21 1.86) (layer F.SilkS) (width 0.12))
  (fp_line (start 2.49 -1.86) (end 2.49 1.86) (layer F.SilkS) (width 0.12))
  (fp_line (start 3.69 -1.8) (end 3.69 1.8) (layer F.Fab) (width 0.1))
  (fp_line (start 12.7 0) (end 10.15 0) (layer F.Fab) (width 0.1))
  (fp_line (start 0 0) (end 2.55 0) (layer F.Fab) (width 0.1))
  (fp_line (start 10.15 -1.8) (end 2.55 -1.8) (layer F.Fab) (width 0.1))
  (fp_line (start 10.15 1.8) (end 10.15 -1.8) (layer F.Fab) (width 0.1))
  (fp_line (start 2.55 1.8) (end 10.15 1.8) (layer F.Fab) (width 0.1))
  (fp_line (start 2.55 -1.8) (end 2.55 1.8) (layer F.Fab) (width 0.1))
  (fp_text user %R (at 6.35 0) (layer F.Fab)
    (effects (font (size 1 1) (thickness 0.15)))
  )
  (pad 2 thru_hole oval (at 12.7 0) (size 2.4 2.4) (drill 1.2) (layers *.Cu *.Mask))
  (pad 1 thru_hole rect (at 0 0) (size 2.4 2.4) (drill 1.2) (layers *.Cu *.Mask))
  (model ${KISYS3DMOD}/Diodes_THT.3dshapes/D_DO-15_P12.70mm_Horizontal.wrl
    (at (xyz 0 0 0))
    (scale (xyz 0.393701 0.393701 0.393701))
    (rotate (xyz 0 0 0))
  )
)
