M48
;DRILL file {KiCad 4.0.7} date 2018 December 10, Monday 09:19:45
;FORMAT={3:3/ absolute / metric / suppress leading zeros}
FMAT,2
METRIC,TZ
T1C0.400
T2C0.700
T3C0.701
T4C0.800
T5C0.900
T6C1.000
T7C1.200
T8C1.300
T9C1.500
T10C5.000
T11C2.700
%
G90
G05
M71
T1
X51258Y-93170
X52772Y-90244
X54324Y-114750
X56791Y-114750
X95109Y-86531
T2
X79301Y-119482
X83301Y-119482
X85301Y-119482
X87301Y-119482
T3
X56388Y-144981
X56388Y-147480
X56388Y-149980
T4
X39751Y-87757
X39751Y-92075
X40054Y-114387
X40067Y-111481
X41017Y-97567
X41017Y-100107
X41017Y-102647
X41017Y-105187
X41807Y-123241
X41807Y-133401
X43942Y-118618
X44069Y-136144
X44196Y-139573
X44958Y-123952
X44958Y-126492
X44958Y-129032
X44958Y-131572
X48637Y-97567
X48637Y-100107
X48637Y-102647
X48637Y-105187
X49911Y-87757
X49911Y-92075
X50214Y-114387
X50227Y-111481
X52451Y-87757
X52578Y-123952
X52578Y-126492
X52578Y-129032
X52578Y-131572
X53367Y-92573
X53367Y-100193
X53776Y-106180
X53776Y-112180
X54102Y-118618
X54229Y-136144
X54356Y-139573
X55907Y-92573
X55907Y-100193
X56585Y-122238
X56585Y-132398
X58205Y-118860
X58447Y-92573
X58447Y-100193
X58508Y-106078
X58508Y-112078
X59874Y-122327
X59874Y-132487
X60987Y-92573
X60987Y-100193
X62611Y-87757
X63146Y-106078
X63146Y-112078
X63527Y-92573
X63527Y-100193
X64700Y-124016
X64700Y-131636
X64949Y-87757
X66067Y-92573
X66067Y-100193
X66285Y-103490
X66285Y-113650
X67240Y-124016
X67240Y-131636
X68365Y-118860
X68607Y-92573
X68607Y-100193
X69211Y-103571
X69211Y-113731
X69780Y-124016
X69780Y-131636
X71147Y-92573
X71147Y-100193
X72320Y-124016
X72320Y-131636
X72366Y-105799
X72366Y-111799
X72455Y-114971
X72455Y-120971
X75015Y-74321
X75015Y-84481
X75109Y-87757
X75299Y-133889
X75439Y-102596
X75439Y-112756
X77052Y-123749
X77070Y-126624
X77070Y-129698
X78205Y-87884
X78289Y-102550
X78289Y-112710
X81251Y-102606
X81251Y-112766
X81299Y-133889
X84205Y-87884
X84634Y-102566
X84634Y-112726
X87212Y-123749
X87230Y-126624
X87230Y-129698
X91843Y-106325
X92518Y-78344
X92630Y-93041
X93473Y-123952
X130959Y-106452
X131634Y-78471
X131746Y-93168
X132589Y-124079
T5
X78304Y-67425
X78304Y-69965
X88439Y-67247
X88439Y-69787
T6
X44233Y-147013
X47733Y-147013
X51233Y-147013
X98299Y-63234
X98299Y-110954
X132588Y-82550
X132588Y-85090
X132588Y-87630
X132818Y-97257
X132818Y-99797
X132818Y-102337
X132907Y-112726
X132907Y-115266
X132907Y-117806
X133237Y-128588
X133237Y-131128
X133237Y-133668
T7
X74444Y-97008
X74555Y-92761
X84604Y-97008
X84715Y-92761
X87921Y-73742
X87921Y-86442
X105211Y-67069
X117911Y-67069
T8
X85452Y-132995
X103994Y-132995
T9
X129810Y-62754
X129810Y-68204
X129810Y-73654
T10
X67818Y-144473
X88265Y-144473
X103759Y-144473
X124206Y-144473
T11
X40621Y-155220
X41065Y-62474
X121837Y-62002
X133351Y-155220
T0
M30
